<?xml version="1.0" standalone="no"?>
<!DOCTYPE svg PUBLIC "-//W3C//DTD SVG 1.1//EN" "http://www.w3.org/Graphics/SVG/1.1/DTD/svg11.dtd" >
<svg xmlns="http://www.w3.org/2000/svg">
<metadata>Generated by IcoMoon</metadata>
<defs>
<font id="icomoon" horiz-adv-x="512">
<font-face units-per-em="512" ascent="480" descent="-32" />
<missing-glyph horiz-adv-x="512" />
<glyph unicode="&#x20;" d="" horiz-adv-x="256" />
<glyph unicode="&#xe600;" d="M411.81-19.772c0 0-70.306-12.97-143.539-12.97-82.073 0-168.072 12.971-168.072 12.971-49.544 0-89.694 39.97-89.694 89.25v85.999c0 49.297 40.15 85.897 89.694 85.897 0 0 76.894 12.97 153.762 12.97 78.916 0 157.858-12.97 157.858-12.97 49.536 0 89.694-37.274 89.694-86.579v-85.325c-0.009-49.28-40.175-89.242-89.702-89.242zM165.657 199.023h-85.913v-24.389h28.962v-143.24h27.99v143.24h28.97v24.389zM239.838 148.958h-24.84v-93.935c-2.338-2.697-4.873-4.933-7.697-6.664-2.791-1.733-5.137-2.586-6.929-2.586-2.321 0-4.028 0.615-5.112 1.962-0.999 1.305-1.536 3.397-1.536 6.315v94.907h-24.832v-103.399c0-7.399 1.468-12.877 4.361-16.581 2.944-3.687 7.21-5.512 12.979-5.512 4.667 0 9.455 1.263 14.413 3.951 4.992 2.594 9.737 6.409 14.345 11.418v-13.534h24.84v123.656zM343.902 122.846c0 10.12-2.057 17.834-6.221 23.108-4.13 5.274-10.137 4.488-18.005 4.488-3.857 0-14.635-0.964-18.44-2.952-3.721-1.937-7.279-4.813-10.632-8.559v57.378h-25.113v-171.017h25.113v9.464c3.234-3.84 6.827-6.579 10.615-8.397 3.772-1.8 15.079-2.68 19.976-2.68 7.339 0 12.997 5.717 16.87 10.385 3.899 4.702 5.846 11.418 5.846 20.13v68.65zM434.227 68.505h-25.549v-5.64c0-7.279-0.87-11.938-2.474-14.097-1.639-2.108-4.505-3.209-8.644-3.209-3.968 0-6.767 1.229-8.423 3.746-1.63 2.534-2.415 7.065-2.415 13.56v23.322h47.505v31.514c0 11.716-3.046 20.702-9.147 26.983-6.101 6.229-14.839 9.37-26.214 9.37-11.144 0-20.164-3.362-27.195-10.12-7.040-6.75-10.555-15.531-10.555-26.231v-55.56c0-11.921 3.234-21.291 9.583-28.024 6.392-6.801 15.155-10.197 26.291-10.197 12.39 0 21.683 3.2 27.878 9.566 6.272 6.451 9.37 16 9.37 28.655v6.366zM386.714 117.922c0 5.18 0.819 8.918 2.568 11.067 1.733 2.313 4.531 3.422 8.517 3.422 3.772 0 6.579-1.11 8.252-3.422 1.733-2.151 2.628-5.88 2.628-11.067v-12.519h-21.957v12.519zM302.473 43.059c-2.099 0-4.062 0.452-5.99 1.331-1.911 0.87-3.874 2.389-5.88 4.403v77.039c1.69 1.673 3.387 2.995 5.128 3.772 1.724 0.827 3.49 1.221 5.257 1.221 3.353 0 12.902-1.092 14.72-3.226 1.758-2.159 2.611-5.325 2.611-9.506v-63.872c0-3.942-0.743-6.776-2.159-8.525-1.433-1.784-10.615-2.637-13.688-2.637zM366.37 300.271c-5.103-5.563-10.471-9.813-16.086-12.723-5.563-2.859-10.957-4.361-16.214-4.361-6.494 0-11.332 2.065-14.626 6.161-3.243 4.011-4.898 10.078-4.898 18.202v113.869h27.93v-104.457c0-3.2 0.64-5.529 1.809-6.954 1.135-1.476 3.046-2.193 5.675-2.193 2.048 0 4.651 0.965 7.817 2.867 3.123 1.937 6.007 4.352 8.593 7.322v103.416h27.981v-136.226h-27.981v15.078zM251.759 281.745c-12.228 0-22.024 3.447-29.363 10.283-7.321 6.869-10.991 16.051-10.991 27.614v70.639c0 10.573 3.755 18.961 11.273 25.216 7.518 6.23 17.655 9.353 30.362 9.353 11.571 0 21.060-3.311 28.476-9.856 7.347-6.579 11.050-15.13 11.050-25.498v-70.383c0-11.656-3.627-20.753-10.846-27.417-7.279-6.631-17.246-9.95-29.96-9.95zM264.064 391.305c0 2.978-1.152 5.359-3.413 7.236-2.279 1.817-5.256 2.697-8.977 2.697-3.405 0-6.169-0.887-8.328-2.697-2.117-1.877-3.183-4.258-3.183-7.236v-74.223c0-3.738 0.999-6.605 2.987-8.653 1.971-2.107 4.839-3.089 8.525-3.089 3.789 0 6.793 1.032 9.037 3.114 2.236 2.099 3.362 4.983 3.362 8.627v74.223zM172.467 285.192h-31.471v84.036l-37.495 111.514h31.71l20.446-73.831h1.98l19.482 73.831h31.992l-36.65-108.083v-87.466z" />
<glyph unicode="&#xe601;" d="M304.214 153.327c-8.601-8.712-1.314-24.534-1.314-24.534l64.751-108.519c0 0 10.632-14.319 19.857-14.319 9.25 0 18.398 7.62 18.398 7.62l51.183 73.447c0 0 5.154 9.267 5.282 17.399 0.171 11.537-17.144 14.703-17.144 14.703l-121.216 39.048c0 0-11.896 3.149-19.798-4.847M298.095 208.034c6.195-10.573 23.305-7.493 23.305-7.493l120.935 35.473c0 0 16.469 6.725 18.816 15.693 2.321 8.977-2.697 19.797-2.697 19.797l-57.788 68.318c0 0-5.034 8.644-15.411 9.506-11.478 0.973-18.534-12.928-18.534-12.928l-68.301-107.929c0 0-6.058-10.743-0.325-20.438zM240.947 250.087c14.242 3.507 16.503 24.303 16.503 24.303l-0.964 172.792c0 0-2.125 21.307-11.699 27.076-14.951 9.122-19.397 4.352-23.689 3.729l-100.403-37.453c0 0-9.822-3.269-14.951-11.503-7.313-11.656 7.407-28.749 7.407-28.749l104.397-142.745c0 0 10.282-10.701 23.399-7.45zM216.132 180.173c0.384 13.329-15.923 21.334-15.923 21.334l-107.912 54.715c0 0-15.992 6.605-23.757 1.997-5.956-3.516-11.213-9.916-11.733-15.548l-7.057-86.835c0 0-1.024-15.036 2.842-21.88 5.513-9.711 23.629-2.969 23.629-2.969l125.994 27.955c4.898 3.311 13.465 3.601 13.918 21.231zM247.493 133.308c-10.838 5.563-23.749-5.965-23.749-5.965l-84.386-93.218c0 0-10.505-14.242-7.833-22.989 2.518-8.209 6.665-12.296 12.603-15.163l84.71-26.82c0 0 10.274-2.159 18.048 0.094 11.050 3.234 8.994 20.565 8.994 20.565l1.937 126.183c-0.009 0-0.435 12.185-10.326 17.314z" />
<glyph unicode="&#xe602;" d="M511.070 379.716c-18.782-8.201-38.938-13.73-60.118-16.222 21.606 12.749 38.204 32.93 46.020 56.994-20.216-11.81-42.615-20.377-66.449-25.002-19.098 20.019-46.302 32.529-76.399 32.529-57.796 0-104.661-46.114-104.661-102.998 0-8.072 0.922-15.931 2.705-23.475-86.972 4.292-164.096 45.312-215.706 107.622-9.011-15.215-14.166-32.904-14.166-51.78 0-35.738 18.474-67.269 46.558-85.743-17.16 0.537-33.297 5.171-47.411 12.886-0.009-0.427-0.009-0.862-0.009-1.297 0-49.903 36.079-91.537 83.951-100.983-8.781-2.363-18.022-3.618-27.571-3.618-6.742 0-13.303 0.649-19.686 1.834 13.32-40.918 51.96-70.699 97.758-71.535-35.806-27.614-80.939-44.101-129.98-44.101-8.431 0-16.768 0.503-24.96 1.45 46.319-29.235 101.325-46.267 160.427-46.267 192.512 0 297.779 156.953 297.779 293.060 0 4.471-0.103 8.909-0.298 13.329 20.429 14.506 38.178 32.649 52.216 53.317z" />
<glyph unicode="&#xe603;" d="M255.992 478.72c-140.8 0-254.942-114.031-254.942-254.72 0-104.303 62.754-193.886 152.61-233.267-0.726 17.75-0.119 39.117 4.446 58.488 4.889 20.668 32.793 138.769 32.793 138.769s-8.149 16.264-8.149 40.32c0 37.743 21.888 65.937 49.186 65.937 23.194 0 34.398-17.408 34.398-38.247 0-23.287-14.882-58.137-22.494-90.385-6.392-27.017 13.551-49.067 40.226-49.067 48.298 0 80.819 62.003 80.819 135.424 0 55.833-37.615 97.63-106.078 97.63-77.346 0-125.534-57.634-125.534-122.001 0-22.187 6.545-37.854 16.845-49.937 4.71-5.581 5.359-7.817 3.635-14.2-1.229-4.719-4.019-15.983-5.162-20.446-1.724-6.451-6.929-8.747-12.783-6.383-35.635 14.533-52.198 53.504-52.198 97.314 0 72.354 61.082 159.113 182.203 159.113 97.365 0 161.433-70.366 161.433-145.903 0-99.917-55.603-174.541-137.583-174.541-27.52 0-53.427 14.848-62.302 31.719 0 0-14.771-58.683-17.92-69.999-5.393-19.669-15.992-39.296-25.677-54.579 22.929-6.767 47.147-10.454 72.251-10.454 140.8 0 254.959 114.065 254.959 254.72-0.026 140.664-114.193 254.694-254.984 254.694z" />
<glyph unicode="&#xe604;" d="M397.269-31.855v174.558c0 43.844-10.513 73.762-50.116 73.762-30.233 0-50.885-20.181-58.82-39.663-2.885-6.998-3.584-16.7-3.584-26.454v-182.203h-113.877c0 0 1.434 310.716 0 341.299h113.877v-61.269c-0.231-0.375-0.503-0.751-0.734-1.135h0.734v1.135c14.533 22.221 52.079 61.858 110.157 61.858 71.987 0 117.094-54.622 117.094-154.829v-187.059h-114.731zM0 309.445h114.748v-341.299h-114.748v341.299zM57.967 366.2c-31.317 0-56.721 25.438-56.721 56.815s25.404 56.841 56.721 56.841c31.335 0 56.73-25.464 56.73-56.841 0.008-31.368-25.395-56.815-56.73-56.815z" />
<glyph unicode="&#xe605;" d="M510.967 355.311h-76.467v-75.085h-38.246v75.085h-76.467v37.53h76.467v75.076h38.246v-75.076h76.467v-37.53zM238.669 432.743c4.113-2.432 8.746-5.982 13.901-10.641 4.941-4.873 9.787-10.871 14.506-17.971 4.539-6.681 8.534-14.601 12.041-23.731 2.901-9.13 4.335-19.781 4.335-31.966-0.401-22.332-5.563-40.183-15.531-53.581-4.889-6.502-10.070-12.485-15.522-17.962-6.059-5.487-12.518-11.067-19.362-16.734-3.899-3.857-7.51-8.218-10.829-13.090-3.899-5.077-5.871-10.957-5.871-17.647 0-6.511 2.014-11.879 5.999-16.145 3.422-4.070 6.715-7.603 9.941-10.649l22.238-17.349c13.815-10.786 25.942-22.647 36.377-35.635 9.83-13.184 14.942-30.447 15.334-51.746 0-30.233-14.038-57.037-42.095-80.35-29.099-24.149-71.074-36.668-125.944-37.445-45.927 0.392-80.222 9.728-102.87 27.921-22.852 17.024-34.287 37.385-34.287 61.107 0 11.529 3.712 24.406 11.153 38.587 7.219 14.149 20.275 26.624 39.194 37.368 21.239 11.546 43.554 19.234 66.918 23.082 23.151 3.251 42.376 5.069 57.677 5.478-4.719 5.905-8.943 12.245-12.638 18.978-4.318 6.519-6.469 14.37-6.469 23.577 0 5.504 0.819 10.095 2.466 13.756 1.425 3.882 2.774 7.45 4.002 10.718-7.458-0.819-14.472-1.22-21.069-1.22-34.901 0.401-61.517 10.846-79.813 31.335-19.166 19.080-28.731 41.31-28.731 66.671 0 30.643 13.568 58.445 40.712 83.405 18.645 14.6 38.016 24.132 58.103 28.587 19.899 3.865 38.545 5.794 55.945 5.794h131.131l-40.482-22.494h-40.465zM153.455 155.384c-13.577-1.826-27.46-4.77-41.66-8.841-3.337-1.212-8.030-3.021-14.080-5.47-6.058-2.628-12.211-6.392-18.483-11.281-6.050-5.069-11.162-11.349-15.343-18.841-4.804-7.928-7.21-17.45-7.21-28.638 0-21.913 10.436-39.978 31.317-54.204 19.832-14.2 46.976-21.504 81.425-21.913 30.899 0.418 54.477 6.912 70.758 19.49 15.889 12.382 23.816 28.322 23.816 47.795 0 15.863-5.435 29.637-16.281 41.421-11.477 11.17-29.448 24.858-53.871 41.096-4.181 0.435-9.071 0.598-14.712 0.598-3.345 0.426-11.904 0-25.677-1.212zM208.008 394.010c-6.195 11.99-14.345 21.751-24.474 29.269-10.334 7.134-22.213 10.88-35.653 11.298-17.775-0.418-32.554-7.227-44.322-20.438-9.942-13.85-14.695-29.286-14.259-46.37 0-22.579 6.938-46.080 20.813-70.459 6.716-11.401 15.394-21.077 26.018-28.988 10.632-7.936 22.767-11.904 36.429-11.904 17.272 0.597 31.642 6.502 43.144 17.698 5.564 7.928 9.139 16.069 10.718 24.389 0.93 8.346 1.408 15.36 1.408 21.043 0.008 24.627-6.571 49.442-19.823 74.462z" />
<glyph unicode="&#xe606;" d="M465.442 480h-418.893c-25.711 0-46.55-20.847-46.55-46.558v-418.885c0-25.711 20.838-46.558 46.55-46.558h212.446c0 0 0.785 109.329 0.785 212.386h-60.672v75.853h60.672v75.844c0 37.197 19.379 90.855 103.594 90.855l63.274 0.179v-75.844c0 0-51.721 0-60.672 0-8.977 0-15.155-12.621-15.155-30.344v-60.681h75.836l-15.163-75.853h-60.663c0-101.837 0-212.386 0-212.386h114.629c25.711 0 46.549 20.847 46.549 46.558v418.875c-0.017 25.711-20.856 46.558-46.567 46.558z" />
</font></defs></svg>